<?xml version="1.0" encoding="utf-8"?>
<!DOCTYPE eagle SYSTEM "eagle.dtd">
<eagle version="9.0.0">
<drawing>
<settings>
<setting alwaysvectorfont="no"/>
<setting keepoldvectorfont="yes"/>
<setting verticaltext="up"/>
</settings>
<grid distance="0.1" unitdist="inch" unit="inch" style="lines" multiple="1" display="no" altdistance="0.01" altunitdist="inch" altunit="inch"/>
<layers>
<layer number="1" name="Top" color="4" fill="1" visible="no" active="no"/>
<layer number="2" name="Route2" color="1" fill="3" visible="no" active="no"/>
<layer number="3" name="Route3" color="4" fill="3" visible="no" active="no"/>
<layer number="4" name="Route4" color="1" fill="4" visible="no" active="no"/>
<layer number="5" name="Route5" color="4" fill="4" visible="no" active="no"/>
<layer number="6" name="Route6" color="1" fill="8" visible="no" active="no"/>
<layer number="7" name="Route7" color="4" fill="8" visible="no" active="no"/>
<layer number="8" name="Route8" color="1" fill="2" visible="no" active="no"/>
<layer number="9" name="Route9" color="4" fill="2" visible="no" active="no"/>
<layer number="10" name="Route10" color="1" fill="7" visible="no" active="no"/>
<layer number="11" name="Route11" color="4" fill="7" visible="no" active="no"/>
<layer number="12" name="Route12" color="1" fill="5" visible="no" active="no"/>
<layer number="13" name="Route13" color="4" fill="5" visible="no" active="no"/>
<layer number="14" name="Route14" color="1" fill="6" visible="no" active="no"/>
<layer number="15" name="Route15" color="4" fill="6" visible="no" active="no"/>
<layer number="16" name="Bottom" color="1" fill="1" visible="no" active="no"/>
<layer number="17" name="Pads" color="2" fill="1" visible="no" active="no"/>
<layer number="18" name="Vias" color="2" fill="1" visible="no" active="no"/>
<layer number="19" name="Unrouted" color="6" fill="1" visible="no" active="no"/>
<layer number="20" name="Dimension" color="15" fill="1" visible="no" active="no"/>
<layer number="21" name="tPlace" color="7" fill="1" visible="no" active="no"/>
<layer number="22" name="bPlace" color="7" fill="1" visible="no" active="no"/>
<layer number="23" name="tOrigins" color="15" fill="1" visible="no" active="no"/>
<layer number="24" name="bOrigins" color="15" fill="1" visible="no" active="no"/>
<layer number="25" name="tNames" color="7" fill="1" visible="no" active="no"/>
<layer number="26" name="bNames" color="7" fill="1" visible="no" active="no"/>
<layer number="27" name="tValues" color="7" fill="1" visible="no" active="no"/>
<layer number="28" name="bValues" color="7" fill="1" visible="no" active="no"/>
<layer number="29" name="tStop" color="7" fill="3" visible="no" active="no"/>
<layer number="30" name="bStop" color="7" fill="6" visible="no" active="no"/>
<layer number="31" name="tCream" color="7" fill="4" visible="no" active="no"/>
<layer number="32" name="bCream" color="7" fill="5" visible="no" active="no"/>
<layer number="33" name="tFinish" color="6" fill="3" visible="no" active="no"/>
<layer number="34" name="bFinish" color="6" fill="6" visible="no" active="no"/>
<layer number="35" name="tGlue" color="7" fill="4" visible="no" active="no"/>
<layer number="36" name="bGlue" color="7" fill="5" visible="no" active="no"/>
<layer number="37" name="tTest" color="7" fill="1" visible="no" active="no"/>
<layer number="38" name="bTest" color="7" fill="1" visible="no" active="no"/>
<layer number="39" name="tKeepout" color="4" fill="11" visible="no" active="no"/>
<layer number="40" name="bKeepout" color="1" fill="11" visible="no" active="no"/>
<layer number="41" name="tRestrict" color="4" fill="10" visible="no" active="no"/>
<layer number="42" name="bRestrict" color="1" fill="10" visible="no" active="no"/>
<layer number="43" name="vRestrict" color="2" fill="10" visible="no" active="no"/>
<layer number="44" name="Drills" color="7" fill="1" visible="no" active="no"/>
<layer number="45" name="Holes" color="7" fill="1" visible="no" active="no"/>
<layer number="46" name="Milling" color="3" fill="1" visible="no" active="no"/>
<layer number="47" name="Measures" color="7" fill="1" visible="no" active="no"/>
<layer number="48" name="Document" color="7" fill="1" visible="no" active="no"/>
<layer number="49" name="Reference" color="7" fill="1" visible="no" active="no"/>
<layer number="50" name="dxf" color="7" fill="1" visible="no" active="no"/>
<layer number="51" name="tDocu" color="7" fill="1" visible="no" active="no"/>
<layer number="52" name="bDocu" color="7" fill="1" visible="no" active="no"/>
<layer number="53" name="tGND_GNDA" color="7" fill="9" visible="no" active="no"/>
<layer number="54" name="bGND_GNDA" color="1" fill="9" visible="no" active="no"/>
<layer number="56" name="wert" color="7" fill="1" visible="no" active="no"/>
<layer number="57" name="tCAD" color="7" fill="1" visible="no" active="no"/>
<layer number="59" name="tCarbon" color="7" fill="1" visible="no" active="no"/>
<layer number="60" name="bCarbon" color="7" fill="1" visible="no" active="no"/>
<layer number="88" name="SimResults" color="9" fill="1" visible="yes" active="yes"/>
<layer number="89" name="SimProbes" color="9" fill="1" visible="yes" active="yes"/>
<layer number="90" name="Modules" color="5" fill="1" visible="yes" active="yes"/>
<layer number="91" name="Nets" color="2" fill="1" visible="yes" active="yes"/>
<layer number="92" name="Busses" color="1" fill="1" visible="yes" active="yes"/>
<layer number="93" name="Pins" color="2" fill="1" visible="no" active="yes"/>
<layer number="94" name="Symbols" color="4" fill="1" visible="yes" active="yes"/>
<layer number="95" name="Names" color="7" fill="1" visible="yes" active="yes"/>
<layer number="96" name="Values" color="7" fill="1" visible="yes" active="yes"/>
<layer number="97" name="Info" color="7" fill="1" visible="yes" active="yes"/>
<layer number="98" name="Guide" color="6" fill="1" visible="yes" active="yes"/>
<layer number="99" name="SpiceOrder" color="7" fill="1" visible="yes" active="yes"/>
<layer number="100" name="Muster" color="7" fill="1" visible="no" active="no"/>
<layer number="101" name="Patch_Top" color="12" fill="4" visible="yes" active="yes"/>
<layer number="102" name="Vscore" color="7" fill="1" visible="yes" active="yes"/>
<layer number="103" name="tMap" color="7" fill="1" visible="yes" active="yes"/>
<layer number="104" name="Name" color="16" fill="1" visible="yes" active="yes"/>
<layer number="105" name="tPlate" color="7" fill="1" visible="yes" active="yes"/>
<layer number="106" name="bPlate" color="7" fill="1" visible="yes" active="yes"/>
<layer number="107" name="Crop" color="7" fill="1" visible="yes" active="yes"/>
<layer number="108" name="tplace-old" color="10" fill="1" visible="yes" active="yes"/>
<layer number="109" name="ref-old" color="11" fill="1" visible="yes" active="yes"/>
<layer number="110" name="fp0" color="7" fill="1" visible="yes" active="yes"/>
<layer number="111" name="LPC17xx" color="7" fill="1" visible="yes" active="yes"/>
<layer number="112" name="tSilk" color="7" fill="1" visible="yes" active="yes"/>
<layer number="113" name="IDFDebug" color="4" fill="1" visible="yes" active="yes"/>
<layer number="114" name="Badge_Outline" color="7" fill="1" visible="yes" active="yes"/>
<layer number="115" name="ReferenceISLANDS" color="7" fill="1" visible="yes" active="yes"/>
<layer number="116" name="Patch_BOT" color="9" fill="4" visible="yes" active="yes"/>
<layer number="118" name="Rect_Pads" color="7" fill="1" visible="yes" active="yes"/>
<layer number="121" name="_tsilk" color="7" fill="1" visible="yes" active="yes"/>
<layer number="122" name="_bsilk" color="7" fill="1" visible="yes" active="yes"/>
<layer number="123" name="tTestmark" color="7" fill="1" visible="yes" active="yes"/>
<layer number="124" name="bTestmark" color="7" fill="1" visible="yes" active="yes"/>
<layer number="125" name="_tNames" color="7" fill="1" visible="yes" active="yes"/>
<layer number="126" name="_bNames" color="7" fill="1" visible="yes" active="yes"/>
<layer number="127" name="_tValues" color="7" fill="1" visible="yes" active="yes"/>
<layer number="128" name="_bValues" color="7" fill="1" visible="yes" active="yes"/>
<layer number="129" name="Mask" color="7" fill="1" visible="yes" active="yes"/>
<layer number="131" name="tAdjust" color="7" fill="1" visible="yes" active="yes"/>
<layer number="132" name="bAdjust" color="7" fill="1" visible="yes" active="yes"/>
<layer number="144" name="Drill_legend" color="7" fill="1" visible="yes" active="yes"/>
<layer number="150" name="Notes" color="7" fill="1" visible="yes" active="yes"/>
<layer number="151" name="HeatSink" color="7" fill="1" visible="yes" active="yes"/>
<layer number="152" name="_bDocu" color="7" fill="1" visible="yes" active="yes"/>
<layer number="153" name="FabDoc1" color="7" fill="1" visible="yes" active="yes"/>
<layer number="154" name="FabDoc2" color="7" fill="1" visible="yes" active="yes"/>
<layer number="155" name="FabDoc3" color="7" fill="1" visible="yes" active="yes"/>
<layer number="199" name="Contour" color="7" fill="1" visible="yes" active="yes"/>
<layer number="200" name="200bmp" color="1" fill="10" visible="yes" active="yes"/>
<layer number="201" name="201bmp" color="2" fill="10" visible="yes" active="yes"/>
<layer number="202" name="202bmp" color="3" fill="10" visible="yes" active="yes"/>
<layer number="203" name="203bmp" color="4" fill="10" visible="yes" active="yes"/>
<layer number="204" name="204bmp" color="5" fill="10" visible="yes" active="yes"/>
<layer number="205" name="205bmp" color="6" fill="10" visible="yes" active="yes"/>
<layer number="206" name="206bmp" color="7" fill="10" visible="yes" active="yes"/>
<layer number="207" name="207bmp" color="8" fill="10" visible="yes" active="yes"/>
<layer number="208" name="208bmp" color="9" fill="10" visible="yes" active="yes"/>
<layer number="209" name="209bmp" color="7" fill="1" visible="yes" active="yes"/>
<layer number="210" name="210bmp" color="7" fill="1" visible="yes" active="yes"/>
<layer number="211" name="211bmp" color="7" fill="1" visible="yes" active="yes"/>
<layer number="212" name="212bmp" color="7" fill="1" visible="yes" active="yes"/>
<layer number="213" name="213bmp" color="7" fill="1" visible="yes" active="yes"/>
<layer number="214" name="214bmp" color="7" fill="1" visible="yes" active="yes"/>
<layer number="215" name="215bmp" color="7" fill="1" visible="yes" active="yes"/>
<layer number="216" name="216bmp" color="7" fill="1" visible="yes" active="yes"/>
<layer number="217" name="217bmp" color="18" fill="1" visible="no" active="no"/>
<layer number="218" name="218bmp" color="19" fill="1" visible="no" active="no"/>
<layer number="219" name="219bmp" color="20" fill="1" visible="no" active="no"/>
<layer number="220" name="220bmp" color="21" fill="1" visible="no" active="no"/>
<layer number="221" name="221bmp" color="22" fill="1" visible="no" active="no"/>
<layer number="222" name="222bmp" color="23" fill="1" visible="no" active="no"/>
<layer number="223" name="223bmp" color="24" fill="1" visible="no" active="no"/>
<layer number="224" name="224bmp" color="25" fill="1" visible="no" active="no"/>
<layer number="225" name="225bmp" color="7" fill="1" visible="yes" active="yes"/>
<layer number="226" name="226bmp" color="7" fill="1" visible="yes" active="yes"/>
<layer number="227" name="227bmp" color="7" fill="1" visible="yes" active="yes"/>
<layer number="228" name="228bmp" color="7" fill="1" visible="yes" active="yes"/>
<layer number="229" name="229bmp" color="7" fill="1" visible="yes" active="yes"/>
<layer number="230" name="230bmp" color="7" fill="1" visible="yes" active="yes"/>
<layer number="231" name="231bmp" color="7" fill="1" visible="yes" active="yes"/>
<layer number="248" name="Housing" color="7" fill="1" visible="yes" active="yes"/>
<layer number="249" name="Edge" color="7" fill="1" visible="yes" active="yes"/>
<layer number="250" name="Descript" color="3" fill="1" visible="no" active="no"/>
<layer number="251" name="SMDround" color="12" fill="11" visible="no" active="no"/>
<layer number="254" name="cooling" color="7" fill="1" visible="yes" active="yes"/>
<layer number="255" name="routoute" color="7" fill="1" visible="yes" active="yes"/>
</layers>
<schematic xreflabel="%F%N/%S.%C%R" xrefpart="/%S.%C%R">
<libraries>
<library name="DubSat1 Components" urn="urn:adsk.eagle:library:348159">
<description>Coulomb counter

Datsheet: http://cds.linear.com/docs/en/datasheet/2943fa.pdf</description>
<packages>
<package name="SOLAR_CELL_BOTTOM_SHORT-PADS" urn="urn:adsk.eagle:footprint:348224/1" locally_modified="yes" library_version="23" library_locally_modified="yes">
<wire x1="0" y1="0" x2="16" y2="0" width="0.127" layer="21"/>
<wire x1="23" y1="0" x2="36.5" y2="0" width="0.127" layer="21"/>
<wire x1="43.5" y1="0" x2="57" y2="0" width="0.127" layer="21"/>
<wire x1="64" y1="0" x2="80" y2="0" width="0.127" layer="21"/>
<wire x1="80" y1="0" x2="80" y2="26.5" width="0.127" layer="21"/>
<wire x1="80" y1="26.5" x2="66.5" y2="40" width="0.127" layer="21"/>
<wire x1="66.5" y1="40" x2="53.75" y2="40" width="0.127" layer="21"/>
<wire x1="46.5" y1="40" x2="13.5" y2="40" width="0.127" layer="21"/>
<wire x1="13.5" y1="40" x2="0" y2="26.5" width="0.127" layer="21"/>
<wire x1="0" y1="26.5" x2="0" y2="0" width="0.127" layer="21"/>
<wire x1="46.5" y1="40" x2="46.5" y2="47" width="0.127" layer="21"/>
<wire x1="46.5" y1="47" x2="53.75" y2="47" width="0.127" layer="21"/>
<wire x1="53.75" y1="47" x2="53.75" y2="40" width="0.127" layer="21"/>
<wire x1="53.75" y1="40" x2="46.5" y2="40" width="0.127" layer="21"/>
<wire x1="16" y1="0" x2="16" y2="-7" width="0.127" layer="21"/>
<wire x1="16" y1="-7" x2="23" y2="-7" width="0.127" layer="21"/>
<wire x1="23" y1="-7" x2="23" y2="0" width="0.127" layer="21"/>
<wire x1="23" y1="0" x2="16" y2="0" width="0.127" layer="21"/>
<wire x1="36.5" y1="0" x2="36.5" y2="-7" width="0.127" layer="21"/>
<wire x1="36.5" y1="-7" x2="43.5" y2="-7" width="0.127" layer="21"/>
<wire x1="43.5" y1="-7" x2="43.5" y2="0" width="0.127" layer="21"/>
<wire x1="43.5" y1="0" x2="36.5" y2="0" width="0.127" layer="21"/>
<wire x1="57" y1="0" x2="57" y2="-7" width="0.127" layer="21"/>
<wire x1="57" y1="-7" x2="64" y2="-7" width="0.127" layer="21"/>
<wire x1="64" y1="-7" x2="64" y2="0" width="0.127" layer="21"/>
<wire x1="64" y1="0" x2="57" y2="0" width="0.127" layer="21"/>
<text x="33.8" y="18.5" size="1.778" layer="21">&gt;NAME</text>
<smd name="P$1" x="19.5" y="-2.5" dx="8" dy="3.5" layer="1"/>
<smd name="P$2" x="40" y="-2.5" dx="8" dy="3.5" layer="1"/>
<smd name="P$3" x="60.5" y="-2.5" dx="8" dy="3.5" layer="1"/>
<smd name="P$4" x="75.74" y="35.6" dx="8" dy="3.5" layer="1" rot="R315"/>
</package>
<package name="SOLAR_CELL_OUTLINE" urn="urn:adsk.eagle:footprint:348220/1" library_version="1">
<wire x1="0" y1="0" x2="16" y2="0" width="0.127" layer="21"/>
<wire x1="23" y1="0" x2="36.5" y2="0" width="0.127" layer="21"/>
<wire x1="43.5" y1="0" x2="57" y2="0" width="0.127" layer="21"/>
<wire x1="64" y1="0" x2="80" y2="0" width="0.127" layer="21"/>
<wire x1="80" y1="0" x2="80" y2="26.5" width="0.127" layer="21"/>
<wire x1="80" y1="26.5" x2="66.5" y2="40" width="0.127" layer="21"/>
<wire x1="66.5" y1="40" x2="53.75" y2="40" width="0.127" layer="21"/>
<wire x1="46.5" y1="40" x2="13.5" y2="40" width="0.127" layer="21"/>
<wire x1="13.5" y1="40" x2="0" y2="26.5" width="0.127" layer="21"/>
<wire x1="0" y1="26.5" x2="0" y2="0" width="0.127" layer="21"/>
<wire x1="46.5" y1="40" x2="46.5" y2="47" width="0.127" layer="21"/>
<wire x1="46.5" y1="47" x2="53.75" y2="47" width="0.127" layer="21"/>
<wire x1="53.75" y1="47" x2="53.75" y2="40" width="0.127" layer="21"/>
<wire x1="53.75" y1="40" x2="46.5" y2="40" width="0.127" layer="21"/>
<wire x1="16" y1="0" x2="16" y2="-7" width="0.127" layer="21"/>
<wire x1="16" y1="-7" x2="23" y2="-7" width="0.127" layer="21"/>
<wire x1="23" y1="-7" x2="23" y2="0" width="0.127" layer="21"/>
<wire x1="23" y1="0" x2="16" y2="0" width="0.127" layer="21"/>
<wire x1="36.5" y1="0" x2="36.5" y2="-7" width="0.127" layer="21"/>
<wire x1="36.5" y1="-7" x2="43.5" y2="-7" width="0.127" layer="21"/>
<wire x1="43.5" y1="-7" x2="43.5" y2="0" width="0.127" layer="21"/>
<wire x1="43.5" y1="0" x2="36.5" y2="0" width="0.127" layer="21"/>
<wire x1="57" y1="0" x2="57" y2="-7" width="0.127" layer="21"/>
<wire x1="57" y1="-7" x2="64" y2="-7" width="0.127" layer="21"/>
<wire x1="64" y1="-7" x2="64" y2="0" width="0.127" layer="21"/>
<wire x1="64" y1="0" x2="57" y2="0" width="0.127" layer="21"/>
<text x="33.8" y="18.5" size="1.778" layer="21">&gt;NAME</text>
</package>
<package name="SOLAR_CELL_TOP_SHORT-PAD" urn="urn:adsk.eagle:footprint:348222/1" library_version="1">
<wire x1="23" y1="0" x2="36.5" y2="0" width="0.127" layer="21"/>
<wire x1="43.5" y1="0" x2="57" y2="0" width="0.127" layer="21"/>
<wire x1="64" y1="0" x2="80" y2="0" width="0.127" layer="21"/>
<wire x1="80" y1="0" x2="80" y2="26.5" width="0.127" layer="21"/>
<wire x1="80" y1="26.5" x2="66.5" y2="40" width="0.127" layer="21"/>
<wire x1="66.5" y1="40" x2="53.75" y2="40" width="0.127" layer="21"/>
<wire x1="46.5" y1="40" x2="13.5" y2="40" width="0.127" layer="21"/>
<wire x1="13.5" y1="40" x2="0" y2="26.5" width="0.127" layer="21"/>
<wire x1="0" y1="26.5" x2="0" y2="0" width="0.127" layer="21"/>
<wire x1="46.5" y1="40" x2="46.5" y2="47" width="0.127" layer="21"/>
<wire x1="46.5" y1="47" x2="53.75" y2="47" width="0.127" layer="21"/>
<wire x1="53.75" y1="47" x2="53.75" y2="40" width="0.127" layer="21"/>
<wire x1="53.75" y1="40" x2="46.5" y2="40" width="0.127" layer="21"/>
<wire x1="16" y1="0" x2="16" y2="-7" width="0.127" layer="21"/>
<wire x1="16" y1="-7" x2="23" y2="-7" width="0.127" layer="21"/>
<wire x1="23" y1="-7" x2="23" y2="0" width="0.127" layer="21"/>
<wire x1="23" y1="0" x2="16" y2="0" width="0.127" layer="21"/>
<wire x1="36.5" y1="0" x2="36.5" y2="-7" width="0.127" layer="21"/>
<wire x1="36.5" y1="-7" x2="43.5" y2="-7" width="0.127" layer="21"/>
<wire x1="43.5" y1="-7" x2="43.5" y2="0" width="0.127" layer="21"/>
<wire x1="43.5" y1="0" x2="36.5" y2="0" width="0.127" layer="21"/>
<wire x1="57" y1="0" x2="57" y2="-7" width="0.127" layer="21"/>
<wire x1="57" y1="-7" x2="64" y2="-7" width="0.127" layer="21"/>
<wire x1="64" y1="-7" x2="64" y2="0" width="0.127" layer="21"/>
<wire x1="64" y1="0" x2="57" y2="0" width="0.127" layer="21"/>
<wire x1="0" y1="0" x2="16" y2="0" width="0.127" layer="21"/>
<wire x1="16" y1="43" x2="16" y2="33" width="0.127" layer="21"/>
<wire x1="16" y1="33" x2="23" y2="33" width="0.127" layer="21"/>
<wire x1="23" y1="33" x2="23" y2="43" width="0.127" layer="21"/>
<wire x1="23" y1="43" x2="16" y2="43" width="0.127" layer="21"/>
<text x="33.8" y="18.5" size="1.778" layer="21">&gt;NAME</text>
<smd name="P$1" x="50" y="42.5" dx="8" dy="3.5" layer="1"/>
<smd name="P$2" x="19.5" y="42.5" dx="8" dy="3.5" layer="1"/>
</package>
<package name="SOLAR_CELL_STAND-ALONE" urn="urn:adsk.eagle:footprint:348226/1" library_version="1">
<wire x1="16" y1="43" x2="16" y2="33" width="0.127" layer="21"/>
<wire x1="16" y1="33" x2="23" y2="33" width="0.127" layer="21"/>
<wire x1="23" y1="33" x2="23" y2="43" width="0.127" layer="21"/>
<wire x1="23" y1="43" x2="16" y2="43" width="0.127" layer="21"/>
<wire x1="0" y1="0" x2="16" y2="0" width="0.127" layer="21"/>
<wire x1="23" y1="0" x2="36.5" y2="0" width="0.127" layer="21"/>
<wire x1="43.5" y1="0" x2="57" y2="0" width="0.127" layer="21"/>
<wire x1="64" y1="0" x2="80" y2="0" width="0.127" layer="21"/>
<wire x1="80" y1="0" x2="80" y2="26.5" width="0.127" layer="21"/>
<wire x1="80" y1="26.5" x2="66.5" y2="40" width="0.127" layer="21"/>
<wire x1="66.5" y1="40" x2="53.75" y2="40" width="0.127" layer="21"/>
<wire x1="46.5" y1="40" x2="13.5" y2="40" width="0.127" layer="21"/>
<wire x1="13.5" y1="40" x2="0" y2="26.5" width="0.127" layer="21"/>
<wire x1="0" y1="26.5" x2="0" y2="0" width="0.127" layer="21"/>
<wire x1="46.5" y1="40" x2="46.5" y2="47" width="0.127" layer="21"/>
<wire x1="46.5" y1="47" x2="53.75" y2="47" width="0.127" layer="21"/>
<wire x1="53.75" y1="47" x2="53.75" y2="40" width="0.127" layer="21"/>
<wire x1="53.75" y1="40" x2="46.5" y2="40" width="0.127" layer="21"/>
<wire x1="16" y1="0" x2="16" y2="-7" width="0.127" layer="21"/>
<wire x1="16" y1="-7" x2="23" y2="-7" width="0.127" layer="21"/>
<wire x1="23" y1="-7" x2="23" y2="0" width="0.127" layer="21"/>
<wire x1="23" y1="0" x2="16" y2="0" width="0.127" layer="21"/>
<wire x1="36.5" y1="0" x2="36.5" y2="-7" width="0.127" layer="21"/>
<wire x1="36.5" y1="-7" x2="43.5" y2="-7" width="0.127" layer="21"/>
<wire x1="43.5" y1="-7" x2="43.5" y2="0" width="0.127" layer="21"/>
<wire x1="43.5" y1="0" x2="36.5" y2="0" width="0.127" layer="21"/>
<wire x1="57" y1="0" x2="57" y2="-7" width="0.127" layer="21"/>
<wire x1="57" y1="-7" x2="64" y2="-7" width="0.127" layer="21"/>
<wire x1="64" y1="-7" x2="64" y2="0" width="0.127" layer="21"/>
<wire x1="64" y1="0" x2="57" y2="0" width="0.127" layer="21"/>
<smd name="P$5" x="19.5" y="42.5" dx="8" dy="3.5" layer="1"/>
<smd name="P$1" x="19.5" y="-2.5" dx="8" dy="3.5" layer="1"/>
<smd name="P$2" x="40" y="-2.5" dx="8" dy="3.5" layer="1"/>
<smd name="P$3" x="60.5" y="-2.5" dx="8" dy="3.5" layer="1"/>
<smd name="P$4" x="50" y="42.5" dx="8" dy="3.5" layer="1"/>
<text x="33.8" y="18.5" size="1.778" layer="21">&gt;NAME</text>
</package>
<package name="SOT-23-5" urn="urn:adsk.eagle:footprint:1731104/1" library_version="23">
<smd name="P$1" x="-0.95" y="-1.35" dx="1.2" dy="0.6" layer="1" rot="R90"/>
<smd name="P$2" x="0" y="-1.35" dx="1.2" dy="0.6" layer="1" rot="R90"/>
<smd name="P$3" x="0.95" y="-1.35" dx="1.2" dy="0.6" layer="1" rot="R90"/>
<smd name="P$4" x="0.95" y="1.35" dx="1.2" dy="0.6" layer="1" rot="R90"/>
<smd name="P$5" x="-0.95" y="1.35" dx="1.2" dy="0.6" layer="1" rot="R90"/>
<wire x1="-1.5" y1="0.8" x2="1.5" y2="0.8" width="0.127" layer="21"/>
<wire x1="1.5" y1="-0.8" x2="-1.5" y2="-0.8" width="0.127" layer="21"/>
<wire x1="-1.5" y1="-0.8" x2="-1.5" y2="0.8" width="0.127" layer="21"/>
<wire x1="1.5" y1="-0.8" x2="1.5" y2="0.8" width="0.127" layer="21"/>
<wire x1="-0.92075" y1="-0.5207" x2="-0.92075" y2="0.4191" width="0.2286" layer="21"/>
</package>
<package name="PICOLOCK_6" urn="urn:adsk.eagle:footprint:348238/2" library_version="23">
<smd name="P$1" x="0" y="0" dx="0.6" dy="1" layer="1" rot="R180"/>
<smd name="P$2" x="1.5" y="0" dx="0.6" dy="1" layer="1" rot="R180"/>
<smd name="P$3" x="3" y="0" dx="0.6" dy="1" layer="1" rot="R180"/>
<smd name="P$4" x="4.5" y="0" dx="0.6" dy="1" layer="1" rot="R180"/>
<smd name="MNT@1" x="-2.605" y="5.2" dx="1.25" dy="1.8" layer="1" rot="R180"/>
<smd name="MNT@2" x="9.805" y="5.2" dx="1.25" dy="1.8" layer="1" rot="R180"/>
<smd name="P$5" x="6" y="0" dx="0.6" dy="1" layer="1" rot="R180"/>
<smd name="P$6" x="7.5" y="0" dx="0.6" dy="1" layer="1" rot="R180"/>
<wire x1="-3.5" y1="6.4" x2="-3.5" y2="-0.8" width="0.127" layer="21"/>
<wire x1="-3.5" y1="-0.8" x2="10.8" y2="-0.8" width="0.127" layer="21"/>
<wire x1="10.8" y1="-0.8" x2="10.8" y2="6.4" width="0.127" layer="21"/>
<wire x1="10.8" y1="6.4" x2="8.9" y2="6.4" width="0.127" layer="21"/>
<wire x1="8.9" y1="6.4" x2="8.9" y2="4.3" width="0.127" layer="21"/>
<wire x1="8.9" y1="4.3" x2="-1.7" y2="4.3" width="0.127" layer="21"/>
<wire x1="-1.7" y1="4.3" x2="-1.7" y2="6.4" width="0.127" layer="21"/>
<wire x1="-1.7" y1="6.4" x2="-3.5" y2="6.4" width="0.127" layer="21"/>
<wire x1="-3.5" y1="6.4" x2="-3.5" y2="8.4" width="0.127" layer="21"/>
<wire x1="-3.5" y1="8.4" x2="10.8" y2="8.4" width="0.127" layer="21"/>
<wire x1="10.8" y1="8.4" x2="10.8" y2="6.4" width="0.127" layer="21"/>
<text x="-1.2" y="4.8" size="0.8128" layer="25" font="vector">&gt;Name</text>
<polygon width="0.127" layer="39">
<vertex x="-3.5" y="8.4"/>
<vertex x="10.8" y="8.4"/>
<vertex x="10.8" y="-0.8"/>
<vertex x="-3.5" y="-0.8"/>
</polygon>
</package>
<package name="0805" urn="urn:adsk.eagle:footprint:348214/2" library_version="23">
<smd name="1" x="-0.9" y="0" dx="0.8" dy="1.2" layer="1"/>
<smd name="2" x="0.9" y="0" dx="0.8" dy="1.2" layer="1"/>
<text x="0.185675" y="-0.58369375" size="0.4064" layer="25" font="vector" rot="R90">&gt;NAME</text>
<wire x1="-1.5" y1="0.8" x2="1.5" y2="0.8" width="0.0508" layer="21"/>
<wire x1="1.5" y1="0.8" x2="1.5" y2="-0.8" width="0.0508" layer="21"/>
<wire x1="1.5" y1="-0.8" x2="-1.5" y2="-0.8" width="0.0508" layer="21"/>
<wire x1="-1.5" y1="-0.8" x2="-1.5" y2="0.8" width="0.0508" layer="21"/>
</package>
<package name="1210" urn="urn:adsk.eagle:footprint:348218/2" library_version="23">
<wire x1="-1.6" y1="1.3" x2="1.6" y2="1.3" width="0.127" layer="51"/>
<wire x1="1.6" y1="1.3" x2="1.6" y2="-1.3" width="0.127" layer="51"/>
<wire x1="1.6" y1="-1.3" x2="-1.6" y2="-1.3" width="0.127" layer="51"/>
<wire x1="-1.6" y1="-1.3" x2="-1.6" y2="1.3" width="0.127" layer="51"/>
<wire x1="-1.6" y1="1.3" x2="1.6" y2="1.3" width="0.2032" layer="21"/>
<wire x1="-1.6" y1="-1.3" x2="1.6" y2="-1.3" width="0.2032" layer="21"/>
<smd name="1" x="-1.6" y="0" dx="1.2" dy="2" layer="1"/>
<smd name="2" x="1.6" y="0" dx="1.2" dy="2" layer="1"/>
<text x="0.135" y="-0.927" size="0.4064" layer="25" font="vector" rot="R90">&gt;NAME</text>
</package>
<package name="1206" urn="urn:adsk.eagle:footprint:348211/1" library_version="23">
<wire x1="-2.473" y1="0.983" x2="2.473" y2="0.983" width="0.0508" layer="21"/>
<wire x1="2.473" y1="-0.983" x2="-2.473" y2="-0.983" width="0.0508" layer="21"/>
<wire x1="-2.473" y1="-0.983" x2="-2.473" y2="0.983" width="0.0508" layer="21"/>
<wire x1="2.473" y1="0.983" x2="2.473" y2="-0.983" width="0.0508" layer="21"/>
<wire x1="-0.965" y1="0.787" x2="0.965" y2="0.787" width="0.1016" layer="51"/>
<wire x1="-0.965" y1="-0.787" x2="0.965" y2="-0.787" width="0.1016" layer="51"/>
<smd name="1" x="-1.4" y="0" dx="1.6" dy="1.8" layer="1"/>
<smd name="2" x="1.4" y="0" dx="1.6" dy="1.8" layer="1"/>
<text x="-1.27" y="1.143" size="0.4064" layer="25">&gt;NAME</text>
<text x="-1.397" y="-1.524" size="0.4064" layer="27">&gt;VALUE</text>
<rectangle x1="-1.7018" y1="-0.8509" x2="-0.9517" y2="0.8491" layer="51"/>
<rectangle x1="0.9517" y1="-0.8491" x2="1.7018" y2="0.8509" layer="51"/>
<rectangle x1="-0.1999" y1="-0.4001" x2="0.1999" y2="0.4001" layer="35"/>
</package>
<package name="0402" urn="urn:adsk.eagle:footprint:348216/1" library_version="23">
<description>&lt;b&gt;CAPACITOR&lt;/b&gt;&lt;p&gt;
chip</description>
<wire x1="-0.245" y1="0.224" x2="0.245" y2="0.224" width="0.1524" layer="51"/>
<wire x1="0.245" y1="-0.224" x2="-0.245" y2="-0.224" width="0.1524" layer="51"/>
<wire x1="-0.9015" y1="0.4195" x2="0.9015" y2="0.4195" width="0.0508" layer="21"/>
<wire x1="0.9015" y1="0.4195" x2="0.9015" y2="-0.4195" width="0.0508" layer="21"/>
<wire x1="0.9015" y1="-0.4195" x2="-0.9015" y2="-0.4195" width="0.0508" layer="21"/>
<wire x1="-0.9015" y1="-0.4195" x2="-0.9015" y2="0.4195" width="0.0508" layer="21"/>
<smd name="1" x="-0.425" y="0" dx="0.6" dy="0.55" layer="1"/>
<smd name="2" x="0.425" y="0" dx="0.6" dy="0.55" layer="1"/>
<text x="0.9652" y="-0.1651" size="0.4064" layer="25" font="vector">&gt;NAME</text>
<rectangle x1="-0.554" y1="-0.3048" x2="-0.254" y2="0.2951" layer="51"/>
<rectangle x1="0.2588" y1="-0.3048" x2="0.5588" y2="0.2951" layer="51"/>
<rectangle x1="-0.1999" y1="-0.3" x2="0.1999" y2="0.3" layer="35"/>
<rectangle x1="-0.2032" y1="-0.3556" x2="0.2032" y2="0.3556" layer="21"/>
</package>
<package name="0603" urn="urn:adsk.eagle:footprint:348215/1" library_version="23">
<wire x1="-1.473" y1="0.729" x2="1.473" y2="0.729" width="0.0508" layer="21"/>
<wire x1="1.473" y1="0.729" x2="1.473" y2="-0.729" width="0.0508" layer="21"/>
<wire x1="1.473" y1="-0.729" x2="-1.473" y2="-0.729" width="0.0508" layer="21"/>
<wire x1="-1.473" y1="-0.729" x2="-1.473" y2="0.729" width="0.0508" layer="21"/>
<wire x1="-0.356" y1="0.432" x2="0.356" y2="0.432" width="0.1016" layer="51"/>
<wire x1="-0.356" y1="-0.419" x2="0.356" y2="-0.419" width="0.1016" layer="51"/>
<smd name="1" x="-0.85" y="0" dx="1.1" dy="1" layer="1"/>
<smd name="2" x="0.85" y="0" dx="1.1" dy="1" layer="1"/>
<text x="1.651" y="-0.1778" size="0.4064" layer="25" font="vector">&gt;NAME</text>
<rectangle x1="-0.8382" y1="-0.4699" x2="-0.3381" y2="0.4801" layer="51"/>
<rectangle x1="0.3302" y1="-0.4699" x2="0.8303" y2="0.4801" layer="51"/>
<rectangle x1="-0.1999" y1="-0.3" x2="0.1999" y2="0.3" layer="35"/>
<rectangle x1="-0.2286" y1="-0.381" x2="0.2286" y2="0.381" layer="21"/>
</package>
<package name="EIA7343" urn="urn:adsk.eagle:footprint:1731093/1" library_version="23">
<wire x1="-5" y1="2.5" x2="-2" y2="2.5" width="0.2032" layer="21"/>
<wire x1="-5" y1="2.5" x2="-5" y2="-2.5" width="0.2032" layer="21"/>
<wire x1="-5" y1="-2.5" x2="-2" y2="-2.5" width="0.2032" layer="21"/>
<wire x1="2" y1="2.5" x2="4" y2="2.5" width="0.2032" layer="21"/>
<wire x1="4" y1="2.5" x2="5" y2="1.5" width="0.2032" layer="21"/>
<wire x1="5" y1="1.5" x2="5" y2="-1.5" width="0.2032" layer="21"/>
<wire x1="5" y1="-1.5" x2="4" y2="-2.5" width="0.2032" layer="21"/>
<wire x1="4" y1="-2.5" x2="2" y2="-2.5" width="0.2032" layer="21"/>
<smd name="C" x="-3.17" y="0" dx="2.55" dy="2.7" layer="1" rot="R180"/>
<smd name="A" x="3.17" y="0" dx="2.55" dy="2.7" layer="1" rot="R180"/>
<text x="-1.27" y="1.27" size="0.4064" layer="25">&gt;Name</text>
<text x="-1.27" y="-1.27" size="0.4064" layer="27">&gt;Value</text>
</package>
<package name="PANASONIC_SVPG" urn="urn:adsk.eagle:footprint:1731092/1" library_version="23">
<wire x1="-3.3" y1="3.3" x2="-3.3" y2="-1.6" width="0.1778" layer="21"/>
<wire x1="-3.3" y1="-1.6" x2="-1.6" y2="-3.3" width="0.1778" layer="21"/>
<wire x1="3.3" y1="3.3" x2="3.3" y2="-1.6" width="0.1778" layer="21"/>
<wire x1="3.3" y1="-1.6" x2="1.6" y2="-3.3" width="0.1778" layer="21"/>
<wire x1="-3.3" y1="3.3" x2="-1" y2="3.3" width="0.1778" layer="21"/>
<wire x1="3.3" y1="3.3" x2="1" y2="3.3" width="0.1778" layer="21"/>
<wire x1="-1.6" y1="-3.3" x2="-1" y2="-3.3" width="0.1778" layer="21"/>
<wire x1="1.6" y1="-3.3" x2="1" y2="-3.3" width="0.1778" layer="21"/>
<smd name="NEG" x="0" y="2.4" dx="2.6" dy="0.8" layer="1" rot="R90" thermals="no"/>
<smd name="POS" x="0" y="-2.4" dx="2.6" dy="0.8" layer="1" rot="R90" thermals="no"/>
</package>
<package name="2917" urn="urn:adsk.eagle:footprint:1731091/1" library_version="23">
<wire x1="-3.65" y1="2.15" x2="3.65" y2="2.15" width="0.127" layer="51"/>
<wire x1="3.65" y1="2.15" x2="3.65" y2="-2.15" width="0.127" layer="51"/>
<wire x1="3.65" y1="-2.15" x2="-3.65" y2="-2.15" width="0.127" layer="51"/>
<wire x1="-3.65" y1="-2.15" x2="-3.65" y2="2.15" width="0.127" layer="51"/>
<wire x1="-3.65" y1="2.15" x2="3.65" y2="2.15" width="0.2032" layer="21"/>
<wire x1="-3.65" y1="-2.15" x2="3.65" y2="-2.15" width="0.2032" layer="21"/>
<smd name="1" x="-3.15" y="0" dx="2.5" dy="4" layer="1"/>
<smd name="2" x="3.15" y="0" dx="2.5" dy="4" layer="1"/>
<text x="-1.816" y="-3.437" size="1.016" layer="25" font="vector">&gt;NAME</text>
<text x="-1.816" y="2.532" size="1.016" layer="25" font="vector">&gt;VALUE</text>
</package>
</packages>
<packages3d>
<package3d name="SOLAR_CELL_BOTTOM_SHORT-PADS" urn="urn:adsk.eagle:package:348282/2" locally_modified="yes" type="model" library_version="23" library_locally_modified="yes">
<packageinstances>
<packageinstance name="SOLAR_CELL_BOTTOM_SHORT-PADS"/>
</packageinstances>
</package3d>
<package3d name="SOLAR_CELL_OUTLINE" urn="urn:adsk.eagle:package:348279/2" type="model" library_version="23" library_locally_modified="yes">
<packageinstances>
<packageinstance name="SOLAR_CELL_OUTLINE"/>
</packageinstances>
</package3d>
<package3d name="SOLAR_CELL_TOP_SHORT-PAD" urn="urn:adsk.eagle:package:348280/2" type="model" library_version="23" library_locally_modified="yes">
<packageinstances>
<packageinstance name="SOLAR_CELL_TOP_SHORT-PAD"/>
</packageinstances>
</package3d>
<package3d name="SOLAR_CELL_STAND-ALONE" urn="urn:adsk.eagle:package:348283/2" type="model" library_version="23" library_locally_modified="yes">
<packageinstances>
<packageinstance name="SOLAR_CELL_STAND-ALONE"/>
</packageinstances>
</package3d>
<package3d name="SOT-23-5" urn="urn:adsk.eagle:package:1731151/2" type="model" library_version="23" library_locally_modified="yes">
<packageinstances>
<packageinstance name="SOT-23-5"/>
</packageinstances>
</package3d>
<package3d name="PICOLOCK_6" urn="urn:adsk.eagle:package:348288/4" type="model" library_version="23" library_locally_modified="yes">
<packageinstances>
<packageinstance name="PICOLOCK_6"/>
</packageinstances>
</package3d>
<package3d name="0805" urn="urn:adsk.eagle:package:348281/2" type="box" library_version="23" library_locally_modified="yes">
<packageinstances>
<packageinstance name="0805"/>
</packageinstances>
</package3d>
<package3d name="1210" urn="urn:adsk.eagle:package:348277/2" type="box" library_version="23" library_locally_modified="yes">
<packageinstances>
<packageinstance name="1210"/>
</packageinstances>
</package3d>
<package3d name="1206" urn="urn:adsk.eagle:package:348272/1" type="box" library_version="23" library_locally_modified="yes">
<packageinstances>
<packageinstance name="1206"/>
</packageinstances>
</package3d>
<package3d name="0402" urn="urn:adsk.eagle:package:348276/1" type="box" library_version="23" library_locally_modified="yes">
<description>CAPACITOR
chip</description>
<packageinstances>
<packageinstance name="0402"/>
</packageinstances>
</package3d>
<package3d name="0603" urn="urn:adsk.eagle:package:348275/1" type="box" library_version="23" library_locally_modified="yes">
<packageinstances>
<packageinstance name="0603"/>
</packageinstances>
</package3d>
<package3d name="EIA7343" urn="urn:adsk.eagle:package:1731141/1" type="box" library_version="23" library_locally_modified="yes">
<packageinstances>
<packageinstance name="EIA7343"/>
</packageinstances>
</package3d>
<package3d name="PANASONIC_SVPG" urn="urn:adsk.eagle:package:1731142/1" type="box" library_version="23" library_locally_modified="yes">
<packageinstances>
<packageinstance name="PANASONIC_SVPG"/>
</packageinstances>
</package3d>
<package3d name="2917" urn="urn:adsk.eagle:package:1731140/1" type="box" library_version="23" library_locally_modified="yes">
<packageinstances>
<packageinstance name="2917"/>
</packageinstances>
</package3d>
</packages3d>
<symbols>
<symbol name="SOLAR_CELL_BOTTOM_PADS" urn="urn:adsk.eagle:symbol:348223/1" locally_modified="yes" library_version="23" library_locally_modified="yes">
<wire x1="12.7" y1="35.56" x2="0" y2="22.86" width="0.254" layer="94"/>
<wire x1="0" y1="22.86" x2="0" y2="0" width="0.254" layer="94"/>
<wire x1="0" y1="0" x2="66.04" y2="0" width="0.254" layer="94"/>
<wire x1="66.04" y1="0" x2="66.04" y2="22.86" width="0.254" layer="94"/>
<wire x1="66.04" y1="22.86" x2="53.34" y2="35.56" width="0.254" layer="94"/>
<wire x1="53.34" y1="35.56" x2="12.7" y2="35.56" width="0.254" layer="94"/>
<pin name="INTERCONNECT_1" x="25.4" y="-5.08" visible="pin" length="middle" rot="R90"/>
<pin name="INTERCONNECT_2" x="33.02" y="-5.08" visible="pin" length="middle" rot="R90"/>
<pin name="INTERCONNECT_3" x="40.64" y="-5.08" visible="pin" length="middle" rot="R90"/>
<text x="22.86" y="20.32" size="2.54" layer="94">&gt;NAME</text>
<pin name="EXTERNAL_DIODE" x="63.5" y="30.48" length="middle" rot="R180"/>
</symbol>
<symbol name="SOLAR_CELL_OUTLINE" urn="urn:adsk.eagle:symbol:348219/1" library_version="1">
<wire x1="12.7" y1="35.56" x2="0" y2="22.86" width="0.254" layer="94"/>
<wire x1="0" y1="22.86" x2="0" y2="0" width="0.254" layer="94"/>
<wire x1="0" y1="0" x2="66.04" y2="0" width="0.254" layer="94"/>
<wire x1="66.04" y1="0" x2="66.04" y2="22.86" width="0.254" layer="94"/>
<wire x1="66.04" y1="22.86" x2="53.34" y2="35.56" width="0.254" layer="94"/>
<wire x1="53.34" y1="35.56" x2="12.7" y2="35.56" width="0.254" layer="94"/>
<text x="22.86" y="20.32" size="2.54" layer="94">&gt;NAME</text>
</symbol>
<symbol name="SOLAR_CELL_TOP_PAD" urn="urn:adsk.eagle:symbol:348221/1" library_version="1">
<wire x1="12.7" y1="35.56" x2="0" y2="22.86" width="0.254" layer="94"/>
<wire x1="0" y1="22.86" x2="0" y2="0" width="0.254" layer="94"/>
<wire x1="0" y1="0" x2="66.04" y2="0" width="0.254" layer="94"/>
<wire x1="66.04" y1="0" x2="66.04" y2="22.86" width="0.254" layer="94"/>
<wire x1="66.04" y1="22.86" x2="53.34" y2="35.56" width="0.254" layer="94"/>
<wire x1="53.34" y1="35.56" x2="12.7" y2="35.56" width="0.254" layer="94"/>
<pin name="BYPASS+INTERCONNECT" x="33.02" y="40.64" visible="pin" length="middle" rot="R270"/>
<pin name="POSSITIVE_TAB" x="15.24" y="40.64" length="middle" rot="R270"/>
<text x="22.86" y="20.32" size="2.54" layer="94">&gt;NAME</text>
</symbol>
<symbol name="SOLAR_CELL_STAND-ALONE" urn="urn:adsk.eagle:symbol:348225/1" library_version="1">
<wire x1="12.7" y1="35.56" x2="0" y2="22.86" width="0.254" layer="94"/>
<wire x1="0" y1="22.86" x2="0" y2="0" width="0.254" layer="94"/>
<wire x1="0" y1="0" x2="66.04" y2="0" width="0.254" layer="94"/>
<wire x1="66.04" y1="0" x2="66.04" y2="22.86" width="0.254" layer="94"/>
<wire x1="66.04" y1="22.86" x2="53.34" y2="35.56" width="0.254" layer="94"/>
<wire x1="53.34" y1="35.56" x2="12.7" y2="35.56" width="0.254" layer="94"/>
<pin name="BYPASS+INTERCONNECTOR" x="43.18" y="40.64" visible="pin" length="middle" rot="R270"/>
<pin name="INTERCONNECTOR_1" x="12.7" y="-5.08" visible="pin" length="middle" rot="R90"/>
<pin name="INTERCONNECTOR_2" x="33.02" y="-5.08" visible="pin" length="middle" rot="R90"/>
<pin name="INTERCONNECTOR_3" x="53.34" y="-5.08" visible="pin" length="middle" rot="R90"/>
<pin name="POSITIVE_TAB" x="17.78" y="40.64" length="middle" rot="R270"/>
<text x="22.86" y="20.32" size="2.54" layer="94">&gt;NAME</text>
</symbol>
<symbol name="TMP36" urn="urn:adsk.eagle:symbol:1731135/1" library_version="23">
<wire x1="-7.62" y1="10.16" x2="-7.62" y2="-10.16" width="0.1524" layer="94"/>
<wire x1="-7.62" y1="-10.16" x2="7.62" y2="-10.16" width="0.1524" layer="94"/>
<wire x1="7.62" y1="-10.16" x2="7.62" y2="10.16" width="0.1524" layer="94"/>
<wire x1="7.62" y1="10.16" x2="-7.62" y2="10.16" width="0.1524" layer="94"/>
<pin name="VOUT" x="-12.7" y="7.62" length="middle"/>
<pin name="VS" x="-12.7" y="0" length="middle"/>
<pin name="NC" x="-12.7" y="-7.62" length="middle"/>
<pin name="GND" x="12.7" y="5.08" length="middle" rot="R180"/>
<pin name="SHTDWN" x="12.7" y="-5.08" length="middle" rot="R180"/>
<text x="-2.54" y="-12.7" size="1.778" layer="94">TMP36</text>
</symbol>
<symbol name="PICOLOCK_6" urn="urn:adsk.eagle:symbol:348237/1" library_version="23">
<pin name="P$1" x="-12.7" y="-5.08" visible="pin" length="middle" rot="R90"/>
<pin name="P$2" x="-7.62" y="-5.08" visible="pin" length="middle" rot="R90"/>
<pin name="P$3" x="-2.54" y="-5.08" visible="pin" length="middle" rot="R90"/>
<pin name="P$4" x="2.54" y="-5.08" visible="pin" length="middle" rot="R90"/>
<pin name="P$5" x="7.62" y="-5.08" visible="pin" length="middle" rot="R90"/>
<pin name="P$6" x="12.7" y="-5.08" visible="pin" length="middle" rot="R90"/>
<wire x1="-15.24" y1="0" x2="15.24" y2="0" width="0.254" layer="94"/>
<wire x1="15.24" y1="0" x2="15.24" y2="10.16" width="0.254" layer="94"/>
<wire x1="15.24" y1="10.16" x2="-15.24" y2="10.16" width="0.254" layer="94"/>
<wire x1="-15.24" y1="10.16" x2="-15.24" y2="0" width="0.254" layer="94"/>
<text x="-12.7" y="12.7" size="2.1844" layer="95">&gt;Name</text>
</symbol>
<symbol name="CAP" urn="urn:adsk.eagle:symbol:348217/1" library_version="23">
<wire x1="0" y1="2.54" x2="0" y2="2.032" width="0.1524" layer="94"/>
<wire x1="0" y1="0" x2="0" y2="0.508" width="0.1524" layer="94"/>
<text x="1.524" y="2.921" size="1.778" layer="95">&gt;NAME</text>
<text x="1.524" y="-2.159" size="1.778" layer="96">&gt;VALUE</text>
<rectangle x1="-2.032" y1="0.508" x2="2.032" y2="1.016" layer="94"/>
<rectangle x1="-2.032" y1="1.524" x2="2.032" y2="2.032" layer="94"/>
<pin name="1" x="0" y="5.08" visible="off" length="short" direction="pas" swaplevel="1" rot="R270"/>
<pin name="2" x="0" y="-2.54" visible="off" length="short" direction="pas" swaplevel="1" rot="R90"/>
</symbol>
</symbols>
<devicesets>
<deviceset name="SOLAR_CELL_BOTTOM" urn="urn:adsk.eagle:component:348321/6" locally_modified="yes" library_version="23" library_locally_modified="yes">
<description>Azurspace Solar cell: http://www.azurspace.com/images/products/0003401-01-01_DB_3G30A.pdf

Contains an outline of the cell with pads on the bottom for the main interconnectors. To be used as the bottom cell in a string of cells.</description>
<gates>
<gate name="G$1" symbol="SOLAR_CELL_BOTTOM_PADS" x="-33.02" y="-15.24"/>
</gates>
<devices>
<device name="" package="SOLAR_CELL_BOTTOM_SHORT-PADS">
<connects>
<connect gate="G$1" pin="EXTERNAL_DIODE" pad="P$4"/>
<connect gate="G$1" pin="INTERCONNECT_1" pad="P$1"/>
<connect gate="G$1" pin="INTERCONNECT_2" pad="P$2"/>
<connect gate="G$1" pin="INTERCONNECT_3" pad="P$3"/>
</connects>
<package3dinstances>
<package3dinstance package3d_urn="urn:adsk.eagle:package:348282/2"/>
</package3dinstances>
<technologies>
<technology name=""/>
</technologies>
</device>
</devices>
</deviceset>
<deviceset name="SOALAR_CELL_OUTLINE" urn="urn:adsk.eagle:component:348317/6" library_version="23" library_locally_modified="yes">
<description>Azurspace Solar Cell: http://www.azurspace.com/images/products/0003401-01-01_DB_3G30A.pdf

Contains an outline of the solar cell without any pads because the interconnectors will be attached externaly and not on the board. This footprint is to be used as the center cells in a string of cells.</description>
<gates>
<gate name="G$1" symbol="SOLAR_CELL_OUTLINE" x="-33.02" y="-15.24"/>
</gates>
<devices>
<device name="" package="SOLAR_CELL_OUTLINE">
<package3dinstances>
<package3dinstance package3d_urn="urn:adsk.eagle:package:348279/2"/>
</package3dinstances>
<technologies>
<technology name=""/>
</technologies>
</device>
</devices>
</deviceset>
<deviceset name="SOLAR_CELL_TOP" urn="urn:adsk.eagle:component:348320/6" library_version="23" library_locally_modified="yes">
<description>Azurspace solar cell: http://www.azurspace.com/images/products/0003401-01-01_DB_3G30A.pdf

With outline of full cell + pad for top side introconnector and integrated bypass diode. To be used as the top cell in a string of cells.</description>
<gates>
<gate name="G$1" symbol="SOLAR_CELL_TOP_PAD" x="-33.02" y="-15.24"/>
</gates>
<devices>
<device name="" package="SOLAR_CELL_TOP_SHORT-PAD">
<connects>
<connect gate="G$1" pin="BYPASS+INTERCONNECT" pad="P$1"/>
<connect gate="G$1" pin="POSSITIVE_TAB" pad="P$2"/>
</connects>
<package3dinstances>
<package3dinstance package3d_urn="urn:adsk.eagle:package:348280/2"/>
</package3dinstances>
<technologies>
<technology name=""/>
</technologies>
</device>
</devices>
</deviceset>
<deviceset name="SOLAR_CELL_STAND-ALONE" urn="urn:adsk.eagle:component:348319/6" library_version="23" library_locally_modified="yes">
<gates>
<gate name="G$1" symbol="SOLAR_CELL_STAND-ALONE" x="0" y="0"/>
</gates>
<devices>
<device name="" package="SOLAR_CELL_STAND-ALONE">
<connects>
<connect gate="G$1" pin="BYPASS+INTERCONNECTOR" pad="P$4"/>
<connect gate="G$1" pin="INTERCONNECTOR_1" pad="P$1"/>
<connect gate="G$1" pin="INTERCONNECTOR_2" pad="P$2"/>
<connect gate="G$1" pin="INTERCONNECTOR_3" pad="P$3"/>
<connect gate="G$1" pin="POSITIVE_TAB" pad="P$5"/>
</connects>
<package3dinstances>
<package3dinstance package3d_urn="urn:adsk.eagle:package:348283/2"/>
</package3dinstances>
<technologies>
<technology name=""/>
</technologies>
</device>
</devices>
</deviceset>
<deviceset name="TMP36" urn="urn:adsk.eagle:component:1731178/2" library_version="23" library_locally_modified="yes">
<gates>
<gate name="G$1" symbol="TMP36" x="0" y="0"/>
</gates>
<devices>
<device name="" package="SOT-23-5">
<connects>
<connect gate="G$1" pin="GND" pad="P$5"/>
<connect gate="G$1" pin="NC" pad="P$3"/>
<connect gate="G$1" pin="SHTDWN" pad="P$4"/>
<connect gate="G$1" pin="VOUT" pad="P$1"/>
<connect gate="G$1" pin="VS" pad="P$2"/>
</connects>
<package3dinstances>
<package3dinstance package3d_urn="urn:adsk.eagle:package:1731151/2"/>
</package3dinstances>
<technologies>
<technology name=""/>
</technologies>
</device>
</devices>
</deviceset>
<deviceset name="PICOLOCK_6" urn="urn:adsk.eagle:component:348324/7" prefix="CONN" library_version="23" library_locally_modified="yes">
<gates>
<gate name="G$1" symbol="PICOLOCK_6" x="12.7" y="0"/>
</gates>
<devices>
<device name="" package="PICOLOCK_6">
<connects>
<connect gate="G$1" pin="P$1" pad="P$1"/>
<connect gate="G$1" pin="P$2" pad="P$2"/>
<connect gate="G$1" pin="P$3" pad="P$3"/>
<connect gate="G$1" pin="P$4" pad="P$4"/>
<connect gate="G$1" pin="P$5" pad="P$5"/>
<connect gate="G$1" pin="P$6" pad="P$6"/>
</connects>
<package3dinstances>
<package3dinstance package3d_urn="urn:adsk.eagle:package:348288/4"/>
</package3dinstances>
<technologies>
<technology name=""/>
</technologies>
</device>
</devices>
</deviceset>
<deviceset name="CAPACITOR" urn="urn:adsk.eagle:component:348318/5" prefix="C" uservalue="yes" library_version="23" library_locally_modified="yes">
<description>&lt;b&gt;Capacitor&lt;/b&gt;
Standard 0603 ceramic capacitor, and 0.1" leaded capacitor.</description>
<gates>
<gate name="G$1" symbol="CAP" x="0" y="0"/>
</gates>
<devices>
<device name="0805" package="0805">
<connects>
<connect gate="G$1" pin="1" pad="1"/>
<connect gate="G$1" pin="2" pad="2"/>
</connects>
<package3dinstances>
<package3dinstance package3d_urn="urn:adsk.eagle:package:348281/2"/>
</package3dinstances>
<technologies>
<technology name=""/>
</technologies>
</device>
<device name="1210" package="1210">
<connects>
<connect gate="G$1" pin="1" pad="1"/>
<connect gate="G$1" pin="2" pad="2"/>
</connects>
<package3dinstances>
<package3dinstance package3d_urn="urn:adsk.eagle:package:348277/2"/>
</package3dinstances>
<technologies>
<technology name=""/>
</technologies>
</device>
<device name="1206" package="1206">
<connects>
<connect gate="G$1" pin="1" pad="1"/>
<connect gate="G$1" pin="2" pad="2"/>
</connects>
<package3dinstances>
<package3dinstance package3d_urn="urn:adsk.eagle:package:348272/1"/>
</package3dinstances>
<technologies>
<technology name=""/>
</technologies>
</device>
<device name="0402" package="0402">
<connects>
<connect gate="G$1" pin="1" pad="1"/>
<connect gate="G$1" pin="2" pad="2"/>
</connects>
<package3dinstances>
<package3dinstance package3d_urn="urn:adsk.eagle:package:348276/1"/>
</package3dinstances>
<technologies>
<technology name=""/>
</technologies>
</device>
<device name="0603" package="0603">
<connects>
<connect gate="G$1" pin="1" pad="1"/>
<connect gate="G$1" pin="2" pad="2"/>
</connects>
<package3dinstances>
<package3dinstance package3d_urn="urn:adsk.eagle:package:348275/1"/>
</package3dinstances>
<technologies>
<technology name=""/>
</technologies>
</device>
<device name="HUGE_TANTALUM" package="EIA7343">
<connects>
<connect gate="G$1" pin="1" pad="A"/>
<connect gate="G$1" pin="2" pad="C"/>
</connects>
<package3dinstances>
<package3dinstance package3d_urn="urn:adsk.eagle:package:1731141/1"/>
</package3dinstances>
<technologies>
<technology name=""/>
</technologies>
</device>
<device name="PANASONIC_16SVPG270M" package="PANASONIC_SVPG">
<connects>
<connect gate="G$1" pin="1" pad="POS"/>
<connect gate="G$1" pin="2" pad="NEG"/>
</connects>
<package3dinstances>
<package3dinstance package3d_urn="urn:adsk.eagle:package:1731142/1"/>
</package3dinstances>
<technologies>
<technology name=""/>
</technologies>
</device>
<device name="2917" package="2917">
<connects>
<connect gate="G$1" pin="1" pad="1"/>
<connect gate="G$1" pin="2" pad="2"/>
</connects>
<package3dinstances>
<package3dinstance package3d_urn="urn:adsk.eagle:package:1731140/1"/>
</package3dinstances>
<technologies>
<technology name=""/>
</technologies>
</device>
</devices>
</deviceset>
</devicesets>
</library>
<library name="SparkFun-PowerSymbols">
<description>&lt;h3&gt;SparkFun Power Symbols&lt;/h3&gt;
This library contains power, ground, and voltage-supply symbols.
&lt;br&gt;
&lt;br&gt;
We've spent an enormous amount of time creating and checking these footprints and parts, but it is &lt;b&gt; the end user's responsibility&lt;/b&gt; to ensure correctness and suitablity for a given componet or application. 
&lt;br&gt;
&lt;br&gt;If you enjoy using this library, please buy one of our products at &lt;a href=" www.sparkfun.com"&gt;SparkFun.com&lt;/a&gt;.
&lt;br&gt;
&lt;br&gt;
&lt;b&gt;Licensing:&lt;/b&gt; Creative Commons ShareAlike 4.0 International - https://creativecommons.org/licenses/by-sa/4.0/ 
&lt;br&gt;
&lt;br&gt;
You are welcome to use this library for commercial purposes. For attribution, we ask that when you begin to sell your device using our footprint, you email us with a link to the product being sold. We want bragging rights that we helped (in a very small part) to create your 8th world wonder. We would like the opportunity to feature your device on our homepage.</description>
<packages>
</packages>
<symbols>
<symbol name="DGND">
<description>&lt;h3&gt;Digital Ground Supply&lt;/h3&gt;</description>
<wire x1="-1.905" y1="0" x2="1.905" y2="0" width="0.254" layer="94"/>
<pin name="GND" x="0" y="2.54" visible="off" length="short" direction="sup" rot="R270"/>
<text x="0" y="-0.254" size="1.778" layer="96" align="top-center">&gt;VALUE</text>
</symbol>
</symbols>
<devicesets>
<deviceset name="GND" prefix="GND">
<description>&lt;h3&gt;Ground Supply Symbol&lt;/h3&gt;
&lt;p&gt;Generic signal ground supply symbol.&lt;/p&gt;</description>
<gates>
<gate name="1" symbol="DGND" x="0" y="0"/>
</gates>
<devices>
<device name="">
<technologies>
<technology name=""/>
</technologies>
</device>
</devices>
</deviceset>
</devicesets>
</library>
<library name="DubSat1 Components">
<description>Shared Library (on github) for components used in Dubsat1</description>
<packages>
<package name="POWERDI_323">
<smd name="P$1" x="-1.25" y="0" dx="1.1" dy="2" layer="1" rot="R90"/>
<smd name="P$2" x="0.65" y="0" dx="0.8" dy="0.8" layer="1" rot="R90"/>
<wire x1="-1.35" y1="-0.65" x2="-1.35" y2="0.65" width="0.2032" layer="21"/>
<wire x1="-1.35" y1="0.65" x2="0.6" y2="0.65" width="0.2032" layer="21"/>
<wire x1="0.6" y1="0.65" x2="0.6" y2="-0.65" width="0.2032" layer="21"/>
<wire x1="0.6" y1="-0.65" x2="-1.35" y2="-0.65" width="0.2032" layer="21"/>
</package>
</packages>
<symbols>
<symbol name="DIODE">
<wire x1="-1.27" y1="-1.27" x2="1.27" y2="0" width="0.254" layer="94"/>
<wire x1="1.27" y1="0" x2="-1.27" y2="1.27" width="0.254" layer="94"/>
<wire x1="1.27" y1="1.27" x2="1.27" y2="0" width="0.254" layer="94"/>
<wire x1="-1.27" y1="1.27" x2="-1.27" y2="0" width="0.254" layer="94"/>
<wire x1="-1.27" y1="0" x2="-1.27" y2="-1.27" width="0.254" layer="94"/>
<wire x1="1.27" y1="0" x2="1.27" y2="-1.27" width="0.254" layer="94"/>
<text x="2.54" y="0.4826" size="1.778" layer="95">&gt;NAME</text>
<text x="2.54" y="-2.3114" size="1.778" layer="96">&gt;VALUE</text>
<pin name="A" x="-2.54" y="0" visible="off" length="point" direction="pas"/>
<pin name="C" x="2.54" y="0" visible="off" length="point" direction="pas" rot="R180"/>
<wire x1="-2.54" y1="0" x2="-1.27" y2="0" width="0.1524" layer="94"/>
<wire x1="2.54" y1="0" x2="1.27" y2="0" width="0.1524" layer="94"/>
</symbol>
</symbols>
<devicesets>
<deviceset name="PD3S130H_1.0A_SHOTTKYDIODE">
<gates>
<gate name="G$1" symbol="DIODE" x="0" y="0"/>
</gates>
<devices>
<device name="" package="POWERDI_323">
<connects>
<connect gate="G$1" pin="A" pad="P$2"/>
<connect gate="G$1" pin="C" pad="P$1"/>
</connects>
<technologies>
<technology name=""/>
</technologies>
</device>
</devices>
</deviceset>
</devicesets>
</library>
</libraries>
<attributes>
</attributes>
<variantdefs>
</variantdefs>
<classes>
<class number="0" name="default" width="0" drill="0">
</class>
</classes>
<parts>
<part name="U$1" library="DubSat1 Components" library_urn="urn:adsk.eagle:library:348159" deviceset="SOLAR_CELL_BOTTOM" device="" package3d_urn="urn:adsk.eagle:package:348282/2"/>
<part name="U$2" library="DubSat1 Components" library_urn="urn:adsk.eagle:library:348159" deviceset="SOALAR_CELL_OUTLINE" device="" package3d_urn="urn:adsk.eagle:package:348279/2"/>
<part name="U$3" library="DubSat1 Components" library_urn="urn:adsk.eagle:library:348159" deviceset="SOALAR_CELL_OUTLINE" device="" package3d_urn="urn:adsk.eagle:package:348279/2"/>
<part name="U$5" library="DubSat1 Components" library_urn="urn:adsk.eagle:library:348159" deviceset="SOLAR_CELL_TOP" device="" package3d_urn="urn:adsk.eagle:package:348280/2"/>
<part name="U$6" library="DubSat1 Components" library_urn="urn:adsk.eagle:library:348159" deviceset="SOLAR_CELL_STAND-ALONE" device="" package3d_urn="urn:adsk.eagle:package:348283/2"/>
<part name="GND1" library="SparkFun-PowerSymbols" deviceset="GND" device=""/>
<part name="U$7" library="DubSat1 Components" library_urn="urn:adsk.eagle:library:348159" deviceset="TMP36" device="" package3d_urn="urn:adsk.eagle:package:1731151/2"/>
<part name="C2" library="DubSat1 Components" library_urn="urn:adsk.eagle:library:348159" deviceset="CAPACITOR" device="0805" package3d_urn="urn:adsk.eagle:package:348281/2"/>
<part name="GND4" library="SparkFun-PowerSymbols" deviceset="GND" device=""/>
<part name="GND5" library="SparkFun-PowerSymbols" deviceset="GND" device=""/>
<part name="CONN1" library="DubSat1 Components" library_urn="urn:adsk.eagle:library:348159" deviceset="PICOLOCK_6" device="" package3d_urn="urn:adsk.eagle:package:348288/4"/>
<part name="U$4" library="DubSat1 Components" deviceset="PD3S130H_1.0A_SHOTTKYDIODE" device=""/>
</parts>
<sheets>
<sheet>
<plain>
</plain>
<instances>
<instance part="U$1" gate="G$1" x="0" y="0"/>
<instance part="U$2" gate="G$1" x="0" y="38.1"/>
<instance part="U$3" gate="G$1" x="0" y="78.74"/>
<instance part="U$5" gate="G$1" x="0" y="157.48"/>
<instance part="U$6" gate="G$1" x="0" y="213.36"/>
<instance part="GND1" gate="1" x="33.02" y="-12.7"/>
<instance part="U$7" gate="G$1" x="-48.26" y="127"/>
<instance part="C2" gate="G$1" x="-66.04" y="121.92"/>
<instance part="GND4" gate="1" x="-66.04" y="116.84"/>
<instance part="GND5" gate="1" x="-25.4" y="129.54"/>
<instance part="CONN1" gate="G$1" x="109.22" y="195.58" rot="R90"/>
<instance part="U$4" gate="G$1" x="76.2" y="12.7" rot="R90"/>
</instances>
<busses>
</busses>
<nets>
<net name="GND" class="0">
<segment>
<pinref part="U$1" gate="G$1" pin="INTERCONNECT_2"/>
<pinref part="U$1" gate="G$1" pin="INTERCONNECT_1"/>
<wire x1="33.02" y1="-5.08" x2="25.4" y2="-5.08" width="0.1524" layer="91"/>
<pinref part="U$1" gate="G$1" pin="INTERCONNECT_3"/>
<wire x1="33.02" y1="-5.08" x2="40.64" y2="-5.08" width="0.1524" layer="91"/>
<junction x="33.02" y="-5.08"/>
<wire x1="33.02" y1="-5.08" x2="33.02" y2="-7.62" width="0.1524" layer="91"/>
<pinref part="GND1" gate="1" pin="GND"/>
<pinref part="U$4" gate="G$1" pin="A"/>
<wire x1="33.02" y1="-7.62" x2="33.02" y2="-10.16" width="0.1524" layer="91"/>
<wire x1="76.2" y1="10.16" x2="76.2" y2="-7.62" width="0.1524" layer="91"/>
<wire x1="76.2" y1="-7.62" x2="33.02" y2="-7.62" width="0.1524" layer="91"/>
<junction x="33.02" y="-7.62"/>
</segment>
<segment>
<pinref part="U$7" gate="G$1" pin="GND"/>
<wire x1="-35.56" y1="132.08" x2="-25.4" y2="132.08" width="0.1524" layer="91"/>
<pinref part="GND5" gate="1" pin="GND"/>
</segment>
<segment>
<pinref part="CONN1" gate="G$1" pin="P$5"/>
<wire x1="114.3" y1="203.2" x2="127" y2="203.2" width="0.1524" layer="91"/>
</segment>
<segment>
<pinref part="CONN1" gate="G$1" pin="P$2"/>
<wire x1="114.3" y1="187.96" x2="127" y2="187.96" width="0.1524" layer="91"/>
</segment>
</net>
<net name="N$7" class="0">
<segment>
<pinref part="U$6" gate="G$1" pin="INTERCONNECTOR_1"/>
<pinref part="U$6" gate="G$1" pin="INTERCONNECTOR_2"/>
<wire x1="12.7" y1="208.28" x2="33.02" y2="208.28" width="0.1524" layer="91"/>
<pinref part="U$6" gate="G$1" pin="INTERCONNECTOR_3"/>
<wire x1="33.02" y1="208.28" x2="53.34" y2="208.28" width="0.1524" layer="91"/>
<junction x="33.02" y="208.28"/>
<pinref part="U$5" gate="G$1" pin="POSSITIVE_TAB"/>
<wire x1="12.7" y1="208.28" x2="15.24" y2="208.28" width="0.1524" layer="91"/>
<wire x1="15.24" y1="208.28" x2="15.24" y2="198.12" width="0.1524" layer="91"/>
<junction x="12.7" y="208.28"/>
</segment>
</net>
<net name="POWER" class="0">
<segment>
<pinref part="U$5" gate="G$1" pin="BYPASS+INTERCONNECT"/>
<wire x1="33.02" y1="198.12" x2="30.48" y2="198.12" width="0.1524" layer="91"/>
<wire x1="30.48" y1="198.12" x2="22.86" y2="205.74" width="0.1524" layer="91"/>
<pinref part="U$6" gate="G$1" pin="POSITIVE_TAB"/>
<wire x1="17.78" y1="254" x2="20.32" y2="254" width="0.1524" layer="91"/>
<wire x1="20.32" y1="254" x2="22.86" y2="251.46" width="0.1524" layer="91"/>
<wire x1="22.86" y1="251.46" x2="22.86" y2="205.74" width="0.1524" layer="91"/>
<wire x1="17.78" y1="254" x2="17.78" y2="259.08" width="0.1524" layer="91"/>
<junction x="17.78" y="254"/>
<label x="17.78" y="259.08" size="1.778" layer="95"/>
</segment>
<segment>
<pinref part="CONN1" gate="G$1" pin="P$6"/>
<wire x1="114.3" y1="208.28" x2="127" y2="208.28" width="0.1524" layer="91"/>
</segment>
<segment>
<pinref part="CONN1" gate="G$1" pin="P$1"/>
<wire x1="114.3" y1="182.88" x2="127" y2="182.88" width="0.1524" layer="91"/>
</segment>
</net>
<net name="VOUT" class="0">
<segment>
<pinref part="U$7" gate="G$1" pin="VOUT"/>
<wire x1="-60.96" y1="134.62" x2="-71.12" y2="134.62" width="0.1524" layer="91"/>
<label x="-71.12" y="134.62" size="1.778" layer="95" rot="R180" xref="yes"/>
</segment>
<segment>
<pinref part="CONN1" gate="G$1" pin="P$4"/>
<wire x1="114.3" y1="198.12" x2="127" y2="198.12" width="0.1524" layer="91"/>
</segment>
</net>
<net name="3V3" class="0">
<segment>
<pinref part="U$7" gate="G$1" pin="VS"/>
<wire x1="-60.96" y1="127" x2="-66.04" y2="127" width="0.1524" layer="91"/>
<pinref part="C2" gate="G$1" pin="1"/>
<wire x1="-66.04" y1="127" x2="-71.12" y2="127" width="0.1524" layer="91"/>
<junction x="-66.04" y="127"/>
<label x="-71.12" y="127" size="1.778" layer="95" rot="R180" xref="yes"/>
<pinref part="U$7" gate="G$1" pin="SHTDWN"/>
<wire x1="-60.96" y1="127" x2="-35.56" y2="127" width="0.1524" layer="91"/>
<wire x1="-35.56" y1="127" x2="-35.56" y2="121.92" width="0.1524" layer="91"/>
<junction x="-60.96" y="127"/>
</segment>
<segment>
<pinref part="CONN1" gate="G$1" pin="P$3"/>
<wire x1="114.3" y1="193.04" x2="127" y2="193.04" width="0.1524" layer="91"/>
</segment>
</net>
<net name="N$8" class="0">
<segment>
<pinref part="U$1" gate="G$1" pin="EXTERNAL_DIODE"/>
<pinref part="U$4" gate="G$1" pin="C"/>
<wire x1="63.5" y1="30.48" x2="76.2" y2="30.48" width="0.1524" layer="91"/>
<wire x1="76.2" y1="30.48" x2="76.2" y2="15.24" width="0.1524" layer="91"/>
</segment>
</net>
</nets>
</sheet>
</sheets>
</schematic>
</drawing>
<compatibility>
<note version="8.2" severity="warning">
Since Version 8.2, EAGLE supports online libraries. The ids
of those online libraries will not be understood (or retained)
with this version.
</note>
<note version="8.3" severity="warning">
Since Version 8.3, EAGLE supports URNs for individual library
assets (packages, symbols, and devices). The URNs of those assets
will not be understood (or retained) with this version.
</note>
<note version="8.3" severity="warning">
Since Version 8.3, EAGLE supports the association of 3D packages
with devices in libraries, schematics, and board files. Those 3D
packages will not be understood (or retained) with this version.
</note>
</compatibility>
</eagle>
